http://3.211.17.212:80
http://159.8.114.37:80
http://169.57.1.84:8123
http://169.57.1.84:80
http://169.57.1.85:8123
http://173.192.128.238:9999
http://173.192.128.238:8123
http://169.57.157.148:80
http://169.57.157.148:8123
http://169.57.157.146:8123
http://161.202.226.194:8123
http://161.202.226.194:80
http://161.202.226.195:8123
http://119.81.189.194:80
http://119.81.189.194:8123
http://115.223.7.110:80
http://42.3.51.114:80
http://159.8.114.34:8123
http://159.8.114.37:8123
http://137.63.184.96:8080
http://62.210.215.105:5836
http://1.255.48.197:8080
http://201.91.82.155:3128
http://114.36.22.182:8080
http://102.130.114.107:3128
http://188.40.183.191:1080
http://78.46.81.7:1080
http://157.245.95.2:3128
http://139.180.218.80:8080
http://125.27.251.249:50890
http://139.180.139.35:8080
http://151.22.181.231:8080
http://45.221.83.192:80
http://157.245.95.2:80
http://139.180.169.89:8080
http://144.91.88.108:5836
http://185.25.206.192:3128
http://186.154.88.202:999
http://45.76.132.209:8080
http://163.172.16.230:3128
http://142.93.130.169:8118
http://167.172.152.115:8080
http://157.245.95.2:8080
http://157.55.86.173:8080
http://104.44.132.216:3128
http://105.112.8.53:3128
http://45.76.152.75:8080
http://171.6.18.150:8080
http://105.29.64.219:80
http://105.29.64.216:80
http://105.29.64.217:80
http://105.29.64.223:80
http://178.62.15.31:3128
http://173.82.17.186:5836
http://104.44.132.216:8080
http://105.29.64.222:80
http://163.44.148.254:8080
http://206.189.113.246:3128
http://58.185.160.30:8080
http://54.241.121.74:3128
http://190.120.249.219:999
http://173.82.17.189:5836
http://149.28.178.201:8080
http://51.89.166.147:8080
http://66.222.126.102:80
http://78.141.206.28:8080
http://207.148.72.43:8080
http://171.35.242.11:8081
http://203.202.245.62:80
http://8.9.37.53:8080
http://8.12.22.124:8080
http://35.169.156.54:3128
http://207.148.117.103:8080
http://88.199.21.76:80
http://3.125.229.126:3128
http://217.69.3.143:8080
http://210.245.8.20:3128
http://95.179.210.246:8080
http://195.225.172.208:57568
http://95.217.34.209:3128
http://210.245.8.19:3128
http://62.219.249.204:8080
http://34.208.151.217:3838
http://91.202.197.1:3128
http://182.23.211.110:80
http://195.211.181.35:3128
http://122.50.5.147:10000
http://103.52.220.114:83
http://18.220.1.250:3128
http://36.26.117.131:1080
http://113.195.154.55:9999
http://80.240.24.62:8080
http://80.240.27.195:8080
http://118.174.46.144:45330
http://118.172.201.49:34803
http://124.41.240.43:49040
http://83.168.86.1:8090
http://87.197.156.62:23500
http://181.57.198.102:46960
http://46.49.121.187:52101
http://139.255.30.122:50326
http://175.111.181.18:56297
http://45.70.212.186:55443
http://180.183.120.78:8213
http://130.180.196.43:60540
http://197.242.206.105:59173
http://103.69.218.200:39780
http://111.92.164.242:33571
http://114.5.128.18:41577
http://182.48.94.238:8080
http://188.165.16.230:3129
http://117.252.212.21:55443
http://81.95.230.211:3128
